"Name","IDC","Phone","Email"
"Arnod","0","0",""
"Borno","0","0",""
"Dalia","0","0",""
"Ernest","0","0",""
"Falone","0","0",""
"Gaelle","0","0",""
"Rasta","0","698654212",""
"Absalom Shu","108523658","696362464","absalomshu@fmail.ciom"
"6500","1085623322","698547851","absalomshu@gmail.com"
"FAJONG","104846494","693652587","faj@gmail.com"
"Abongwa Tantoh","1085623322","0",""
"Abongwa Tantoh","0","0","abongwendy@yahoo.com"
"Rasta","0","0",""
"Kilo Penasol","0","0",""
"Abongwa Tantoh","1085623322","0",""
"Abongwa Tantoh","0","0",""
"Abongwa Tantoh","0","0","absalomshu@gmail.com"
"Abongwa Tantoh","0","0",""
"Reeva Steenkamp","0","0",""
"Babylon","0","0",""
"Reeva Steenkamp","0","0",""
"Abongwa Tantoh","0","0",""
"Abongwa Tantoh","0","0",""
"Reeva Steenkamp","0","0",""
"Abongwa Tantoh","0","0",""
"Abongwa Tantoh","0","0",""
"Nelson Faro","0","0",""
"Fusi Manasseh","0","0",""
"Abongwa Tantoh","0","0",""
"Nelson Faro","0","0",""
"Palo Alto","0","0",""
"Abongwa Tantoh","0","0",""
"Reeva Steenkamp","0","0",""
"Abongwa Tantoh","0","0",""
"Reeva Steenkamp","0","0",""
"Shu Absalom","0","0",""
"Reeva Steenkamp","0","0",""
"Nelson Faro","0","0",""
"Reeva Steenkamp","105898524","965221452","tan@to.h"
"Aberengwaaa","105897845","698545214","10@gmail.com4"
"Abongwa Tantoh","0","0",""
"Reeva ","22222","33333333","ree@va.com"
"Nelson Faro","1085623322","5555215",""
"Lowe Alino","0","0",""
"Jules Nana","11","222",""
"Oj Simpson","55","66","tan@to.ho"
"Nelson Faro","108","696362464",""
"Absalom","0","696362464",""
"Reeva Steenkamp","0","0","absalomshu@gmail.com"
"Reeva Steenkamp","0","0",""
"Shu Absalom","0","0",""
"Shu Absalom","0","0",""
"Nelson Faro","0","0",""
"Nelson Faro","0","0",""
"Shu Absalom","0","0",""
"Abongwa Tantoh","567","696362454","abongtantoh@gmail.com"
"Reeva Steenkamp","0","0",""
"Shu Absalom","108562321","632547896","absalomshu@gmail.com"
"Shu Absalom","108310175","696362464","absalomshu@gmail.com"
"Absalom Shu","108310175","696362464","absalomshu@gmail.com"
"Niba Tafor","0","678956321","niba@tafor.com"
"Niba Tafor","111111111","678956321","niba@tafor.com"
"Niba Tafor","0","0",""
"Fusi Manasseh","111111125","632547896",""
"Fusi Manasseh","102545636","666666666","fusi@manasseh.com"
"Shu Mabel","0","674777444",""
"Reeva Steenkamp","1085623322","2147483647",""
"Absalom Shu","108310175","696362464",""
"Absalom Shu","108310175","696362464","absalomshu@gmail.com"
"Koolio","0","696969696","koo@lio.com"
"Absalom Shu","0","0",""
"Ruler","105236548","632145698","ruler@crouch.com"
"Absalom","108532654","696362646","absalomshu@gmail.com"
"Absalom Shu","108523658","696362464","absalomshu@fmail.ciom"
"Krazic","102333333","632145878","kras@sic.com"
"Krazics","0","0",""
"krazi","0","0",""
"krazic shu","0","0",""
"shu","0","0",""
"shu mabel","0","0",""
"mabel","0","0",""
"Krazics","0","0",""
"shu mabel","0","0",""
"shu","0","0",""
"Shu","0","0",""
"Shu","0","0",""
"Shu","0","0",""
"Sssss","0","0",""
"Shu Mabel","0","689898989","solo@ngongi.com"
"Absalom Shu","108523658","696362464","absalomshu@fmail.ciom"
"Absalom Shu","108523658","696362464","absalomshu@fmail.ciom"
"Absalom Shu","108523658","696362464","absalomshu@fmail.ciom"
"Absalom Shu","108523658","696362464","absalomshu@fmail.ciom"
"Absalom Shu","108523658","696362464","absalomshu@fmail.ciom"
"Absalom Shu","108523658","696362464","absalomshu@fmail.ciom"
"Absalom Shu","108523658","696362464","absalomshu@fmail.ciom"
"Wrtewrt","0","0",""
"Absalom Shu","108523658","696362464","absalomshu@fmail.ciom"
"Sss","0","0",""
"Ss","0","0",""
"Sdfd","0","0",""
"Absalom Shu","108523658","696362464","absalomshu@fmail.ciom"
"Absalom Shu","108523658","696362464","absalomshu@fmail.ciom"
"Absalom Shu","108523658","696362464","absalomshu@fmail.ciom"
"Absalom Shu","108523658","696362464","absalomshu@fmail.ciom"
"Absalom Shu","108523658","696362464","absalomshu@fmail.ciom"
"Absalom Shu","108523658","696362464","absalomshu@fmail.ciom"
"Absalom Shu","108523658","696362464","absalomshu@fmail.ciom"
"Absalom Shu","108523658","696362464","absalomshu@fmail.ciom"
"Absalom Shu","108523658","696362464","absalomshu@fmail.ciom"
"Absalom Shu","108523658","696362464","absalomshu@fmail.ciom"
"Absalom Shu","108523658","696362464","absalomshu@fmail.ciom"
"Absalom Shu","108523658","696362464","absalomshu@fmail.ciom"
"Absalom Shu","108523658","696362464","absalomshu@fmail.ciom"
"Absalom Shu","108523658","696362464","absalomshu@fmail.ciom"
"Absalom Shu","108523658","696362464","absalomshu@fmail.ciom"
"Absalom Shu","108523658","696362464","absalomshu@fmail.ciom"
"Absalom Shu","108523658","696362464","absalomshu@fmail.ciom"
"Absalom Shu","108523658","696362464","absalomshu@fmail.ciom"
"Absalom Shu","108523658","696362464","absalomshu@fmail.ciom"
"Ab","0","0",""
"Ab","0","0",""
"Absalom Shu","108523658","696362464","absalomshu@fmail.ciom"
"Sss","0","0",""
"Ab","0","0",""
"Absalom Shu","108523658","696362464","absalomshu@fmail.ciom"
"Absalom Shu","108523658","696362464","absalomshu@fmail.ciom"
"Killian","0","0",""
"Absalom Shu","108523658","696362464","absalomshu@fmail.ciom"
"As","0","0",""
"Ss","0","0",""
"Absalom Shu","108523658","696362464","absalomshu@fmail.ciom"
"Absalom Shu","108523658","696362464","absalomshu@fmail.ciom"
"Absa","0","0",""
"Absalom Shu","108523658","696362464","absalomshu@fmail.ciom"
"John Doe","152523456","698577784",""
"Jacky Lee","108566636","0",""
"Souleymanou Ousman","102547856","0",""
"John Doe","108563214","698562147","johndoe@gmail.com"
"Shu","0","0",""
"Y","0","0",""
"Op","0","0",""
"Ih","0","0",""
"Hij","0","0",""
"Kabila","0","0",""
"Shu","0","0",""
"Absal","10233232","0",""
