date	income	expenditure	 net
20160801	0	0	0
20160802	0	0	0
20160803	0	0	0
20160804	0	0	0
20160805	0	0	0
20160806	0	0	0
20160807	0	0	0
20160808	0	0	0
20160809	0	0	0
20160810	0	0	0
20160811	0	0	0
20160812	0	10000	-10000
20160813	0	0	0
20160814	0	0	0
20160815	0	0	0
20160816	0	0	0
20160817	0	0	0
20160818	0	0	0
20160819	0	0	0
20160820	0	0	0
20160821	0	0	0
20160822	0	0	0
20160823	0	0	0
20160824	0	0	0
20160825	0	0	0
20160826	0	0	0
20160827	0	0	0
20160828	0	0	0
20160829	10000	10000	0
20160830	0	0	0
20160831	0	0	0
20160901	0	0	0
20160902	0	0	0
20160903	0	0	0
20160904	0	0	0
20160905	0	0	0
20160906	0	0	0
20160907	0	0	0
20160908	2500	0	2500
20160909	0	0	0
20160910	0	0	0
20160911	0	0	0
20160912	0	0	0
20160913	0	0	0
20160914	0	0	0
20160915	0	0	0
20160916	0	0	0
20160917	0	0	0
20160918	0	0	0
20160919	0	0	0
20160920	1000	0	1000
20160921	30000	0	30000
20160922	6000	10000	-4000
20160923	0	0	0
20160924	0	0	0
20160925	0	0	0
20160926	0	0	0
20160927	0	0	0
20160928	0	0	0
20160929	0	0	0
20160930	0	0	0
20161001	0	0	0
20161002	0	0	0
20161003	0	0	0
20161004	0	0	0
20161005	0	0	0
20161006	0	0	0
20161007	0	0	0
20161008	0	400	-400
20161009	0	500	-500
20161010	0	2811	-2811
20161011	0	0	0
20161012	0	0	0
20161013	0	0	0
20161014	0	0	0
20161015	0	0	0
20161016	0	0	0
20161017	0	0	0
20161018	0	0	0
20161019	0	0	0
20161020	0	0	0
20161021	0	0	0
20161022	0	0	0
20161023	0	0	0
20161024	0	0	0
20161025	0	0	0
20161026	0	0	0
20161027	0	0	0
20161028	0	0	0
20161029	0	0	0
20161030	0	0	0
20161031	0	0	0
20161101	0	0	0
20161102	0	0	0
20161103	0	0	0
20161104	0	0	0
20161105	0	0	0
20161106	0	0	0
20161107	0	0	0
20161108	0	0	0
20161109	0	0	0
20161110	0	0	0
20161111	0	0	0
20161112	0	0	0
20161113	0	0	0
20161114	0	0	0
20161115	0	0	0
20161116	0	0	0
20161117	0	0	0
20161118	0	0	0
20161119	0	0	0
20161120	0	0	0
20161121	0	0	0
20161122	0	0	0
20161123	0	0	0
20161124	0	0	0
20161125	0	0	0
20161126	0	0	0
20161127	0	0	0
20161128	0	0	0
20161129	0	0	0
20161130	50000	0	50000
20161201	0	0	0
20161202	0	0	0
20161203	0	0	0
20161204	0	0	0
20161205	0	0	0
20161206	0	325150	-325150
20161207	7500	0	7500
20161208	0	0	0
20161209	0	0	0
20161210	0	0	0
20161211	0	0	0
20161212	0	0	0
20161213	0	0	0
20161214	30000	5000	25000
20161215	0	0	0
20161216	81600	5200	76400
20161217	0	0	0
