date	income	expenditure	 net
20160503	0	0	0
20160504	0	0	0
20160505	0	0	0
20160506	0	0	0
20160507	0	0	0
20160508	0	0	0
20160509	0	0	0
20160510	0	0	0
20160511	0	0	0
20160512	0	0	0
20160513	0	0	0
20160514	0	0	0
20160515	0	0	0
20160516	0	0	0
20160517	0	0	0
20160518	0	0	0
20160519	8000	10000	-2000
20160520	0	0	0
20160521	0	0	0
20160522	0	0	0
20160523	0	0	0
20160524	0	0	0
20160525	0	0	0
20160526	0	0	0
20160527	0	0	0
20160528	0	0	0
20160529	0	0	0
20160530	0	0	0
20160531	0	0	0
20160601	0	0	0
20160602	0	0	0
20160603	0	0	0
20160604	0	0	0
20160605	0	0	0
20160606	0	0	0
20160607	0	0	0
20160608	0	0	0
20160609	0	0	0
20160610	0	0	0
20160611	0	0	0
20160612	0	0	0
20160613	0	0	0
20160614	0	0	0
20160615	0	0	0
20160616	0	0	0
20160617	0	0	0
20160618	0	0	0
20160619	0	0	0
20160620	0	0	0
20160621	0	0	0
20160622	0	0	0
20160623	0	0	0
20160624	0	0	0
20160625	0	0	0
20160626	0	0	0
20160627	0	0	0
20160628	0	0	0
20160629	0	0	0
20160630	0	0	0
20160701	0	0	0
20160702	0	0	0
20160703	0	0	0
20160704	0	0	0
20160705	0	0	0
20160706	0	0	0
20160707	0	0	0
20160708	0	0	0
20160709	0	0	0
20160710	0	0	0
20160711	0	0	0
20160712	0	0	0
20160713	0	0	0
20160714	0	0	0
20160715	0	0	0
20160716	0	0	0
20160717	0	0	0
20160718	0	0	0
20160719	0	0	0
20160720	0	0	0
20160721	0	0	0
20160722	0	0	0
20160723	0	0	0
20160724	0	0	0
20160725	0	0	0
20160726	0	0	0
20160727	0	0	0
20160728	0	0	0
20160729	0	20000	-20000
20160730	0	0	0
20160731	0	0	0
20160801	0	0	0
20160802	0	0	0
20160803	0	0	0
20160804	0	0	0
20160805	0	0	0
20160806	0	0	0
20160807	0	0	0
20160808	0	0	0
20160809	0	0	0
20160810	0	0	0
20160811	0	0	0
20160812	0	10000	-10000
20160813	0	0	0
20160814	0	0	0
20160815	0	0	0
20160816	0	0	0
20160817	0	0	0
20160818	0	0	0
20160819	0	0	0
20160820	0	0	0
20160821	0	0	0
20160822	0	0	0
20160823	0	0	0
20160824	0	0	0
20160825	0	0	0
20160826	0	0	0
20160827	0	0	0
20160828	0	0	0
20160829	10000	10000	0
20160830	0	0	0
20160831	0	0	0
20160901	0	0	0
20160902	0	0	0
20160903	0	0	0
20160904	0	0	0
20160905	0	0	0
20160906	0	0	0
20160907	0	0	0
20160908	2500	0	2500
20160909	0	0	0
20160910	0	0	0
20160911	0	0	0
20160912	0	0	0
20160913	0	0	0
20160914	0	0	0
20160915	0	0	0
20160916	0	0	0
20160917	0	0	0
20160918	0	0	0
20160919	0	0	0
20160920	1000	0	1000
20160921	30000	0	30000
20160922	6000	10000	-4000
20160923	0	0	0
20160924	0	0	0
20160925	0	0	0
20160926	0	0	0
20160927	0	0	0
20160928	0	0	0
20160929	0	0	0
20160930	0	0	0
20161001	0	0	0
20161002	0	0	0
20161003	0	0	0
20161004	0	0	0
20161005	0	0	0
20161006	0	0	0
20161007	0	0	0
20161008	0	400	-400
20161009	0	500	-500
20161010	0	2811	-2811
20161011	0	0	0
20161012	0	0	0
20161013	0	0	0
20161014	0	0	0
20161015	0	0	0
20161016	0	0	0
20161017	0	0	0
20161018	0	0	0
20161019	0	0	0
20161020	0	0	0
20161021	0	0	0
20161022	0	0	0
20161023	0	0	0
20161024	0	0	0
20161025	0	0	0
20161026	0	0	0
20161027	0	0	0
20161028	0	0	0
20161029	0	0	0
20161030	0	0	0
20161031	0	0	0
20161101	0	0	0
20161102	0	0	0
20161103	0	0	0
20161104	0	0	0
20161105	0	0	0
20161106	0	0	0
20161107	0	0	0
20161108	0	0	0
20161109	0	0	0
20161110	0	0	0
20161111	0	0	0
20161112	0	0	0
20161113	0	0	0
20161114	0	0	0
20161115	0	0	0
20161116	0	0	0
20161117	0	0	0
20161118	0	0	0
20161119	0	0	0
20161120	0	0	0
20161121	0	0	0
20161122	0	0	0
20161123	0	0	0
20161124	0	0	0
20161125	0	0	0
20161126	0	0	0
20161127	0	0	0
20161128	0	0	0
20161129	0	0	0
20161130	50000	0	50000
20161201	0	0	0
20161202	0	0	0
20161203	0	0	0
20161204	0	0	0
20161205	0	0	0
20161206	0	325150	-325150
20161207	7500	0	7500
20161208	0	0	0
20161209	0	0	0
20161210	0	0	0
20161211	0	0	0
20161212	0	0	0
20161213	0	0	0
20161214	30000	5000	25000
20161215	0	0	0
20161216	81600	5200	76400
20161217	0	2500	-2500
20161218	0	20000	-20000
20161219	0	0	0
20161220	0	0	0
20161221	0	0	0
20161222	0	0	0
20161223	0	0	0
20161224	0	0	0
20161225	0	0	0
20161226	0	0	0
20161227	0	0	0
20161228	0	0	0
20161229	0	0	0
20161230	0	0	0
20161231	0	0	0
20170101	0	0	0
20170102	0	0	0
20170103	0	0	0
20170104	0	0	0
20170105	0	0	0
20170106	0	0	0
20170107	0	0	0
20170108	0	15000	-15000
20170109	0	0	0
